{
	"code": "200",
	"data": {
		"基本信息": "双港镇聂家自来水厂",
		"所在河段": "鄱阳湖",
		"水源类型": "地表水",
		
                "集水面积": "",	
                "取水口高程": "8.10",
		"无法取水口高程": "",
		"枯警水位": "",             
                "取水方式": "固定式（水泵）",
                
                "设计供水规模": "5000",
		"日取水量": "1000",	
		"供水人数": "4400",
    
  
                "市": "上饶市",
                "县": "鄱阳县",                
                "运行管理单位": "鄱阳县双港镇聂家自来水厂"
	},
	"success": true,
	"message": "查询成功"
}