{
	"code": "200",
	"data": {
		"基本信息": "鄱阳县农村饮水安全巩固提升工程芦田乡管网延伸及水厂水质管理改进工程",
		"所在河段": "蜈蚣山水库",
		"水源类型": "地表水",
		
                "集水面积": "25.6",		
                "取水口高程": "16.73",
		"无法取水口高程": "19.45",
		"枯警水位": "20.75",             
                "取水方式": "固定式（水泵）",
                
                "设计供水规模": "5000",
		"日取水量": "800",	
		"供水人数": "45000",
     
                "市": "上饶市",
                "县": "鄱阳县",
                "运行管理单位": "鄱阳县东胜自来水厂"
	},
	"success": true,
	"message": "查询成功"
}