{
	"code": "200",
	"data": {

                "基本信息":"杉溪水厂",
                "所在河段":"丰溪河",
                "水源类型": "地表水",
		
                "集水面积":"788",
                "取水口高程":"105.60",
		"无法取水口高程":"105.60",
		"枯警水位":"109.35",
                "取水方式":"固定式（傍井）", 
                "设计供水规模":"5000",
		"日取水量": "800",	
		"供水人数":"30638",
                "市": "上饶市",
                "县": "广丰区",             
                "运行管理单位":"杉溪自来水厂"
	},
	"success": true,
	"message": "查询成功"
}
