{
	"code": "200",
	"data": {
	        "基本信息":"排山水厂",
                "所在河段":"丰溪河",
                "水源类型": "地表水",
		
                "集水面积":"804",
                "取水口高程":"100.17",
		"无法取水口高程":"100.20",
		"枯警水位":"103.60",
                "取水方式":"固定式（傍井）",    
                "设计供水规模":" 5000",
		"日取水量": "5000",	
		"供水人数":"42700",
                "市": "上饶市",
                "县": "广丰区",
                "运行管理单位":"广丰区排山自来水有限公司"
	},
	"success": true,
	"message": "查询成功"
}
                                    