{
	"code": "200",
	"data": {
	        "基本信息":"枧底水厂",
                "所在河段":"丰溪河",
                "水源类型": "地表水",
		
                "集水面积":"375",
                "取水口高程":"118.04",
		"无法取水口高程":"118.05",
		"枯警水位":"121.75",
                "取水方式":"固定式（傍井）",    
                "设计供水规模": "4000",
		"日取水量": "1500",	
		"供水人数":"25900",
                "市": "上饶市",
                "县": "广丰区",
                "运行管理单位":"广丰区枧底自来水厂"
	},
	"success": true,
	"message": "查询成功"
}
