{
	"code": "200",
	"data": {
		"基本信息": "上泸镇集中供水工程",
		"所在河段": "大坳水库渠道",
		"水源类型": "地表水",
		
                "集水面积": "0.5",		
                "取水口高程": "130.67",
		"无法取水口高程":"130.70 ",
		"枯警水位": "131.20",             
                "取水方式": "渠道取水）",
                
                "设计供水规模": "7500",
		"日取水量": "7500",	
		"供水人数": "50711",
  
                "市": "上饶市",
                "县": "广信区",                            
                "运行管理单位": "上泸镇泸溪自来水厂"
	},
	"success": true,
	"message": "查询成功"
}