{
	"code": "200",
	"data": {
		"基本信息": "德兴市昄大乡港首供水工程",
	        "所在河段": "昄大水",
                "水源类型": "地表水",
		
                "集水面积": "32.5",		
                "取水口高程": "199.80",
		"无法取水口高程": "",
		"枯警水位": "204.65 ",             
                "取水方式": "固定式（水泵）",               
                "设计供水规模": "2700",
		"日取水量": "200",	
		"供水人数":"4500",                
                "市": "上饶市",
                "县": "德兴市",
                "运行管理单位": "三清山自来水有限公司"


},
	"success": true,
	"message": "查询成功"
}

