{
	"code": "200",
	"data": {
		"基本信息": "玉山县仙岩镇官溪自来水工程",
		"所在河段": "大弄水库、山青塘水库",
		"水源类型": "地表水",
		
                "集水面积": "1.1",		
                "取水口高程": "215.54",
		"无法取水口高程": "58.00",
		"枯警水位": "63.60",             
                "取水方式": "浮动式取水",
                
                "设计供水规模": "1600",
		"日取水量": "300",	
		"供水人数": "15642",
  
                "市": "上饶市",
                "县": "玉山县",                            
                "运行管理单位": "玉山县官溪自来水厂"
	},
	"success": true,
	"message": "查询成功"
}