{
	"code": "200",
	"data": {
	        "基本信息":"横峰县兴安农村饮水安全工程青板水厂",
                "所在河段":"葛溪",
                "水源类型": "地表水",
		
                "集水面积":"13.03",
                "取水口高程":"",
		"无法取水口高程":"",
		"枯警水位":"80.60",
                "取水方式":"固定式（傍井）",    
                "设计供水规模": "2000",
		"日取水量": "200",	
		"供水人数":"6000",
                "市": "上饶市",
                "县": "横峰县",
                "运行管理单位":"横峰县青板水厂"

	},
	"success": true,
	"message": "查询成功"
}
              