 {
	"code": "200",
	"data": {               

                "基本信息":"横峰县葛源农村饮水安全工程（农村自来水工程）葛源水厂",
                "所在河段":"地下水",
                "水源类型": "地下水",
		
                "集水面积":"",
                "取水口高程":"",
		"无法取水口高程":"",
		"枯警水位":"",
                "取水方式":"管井取水 ", 
                "设计供水规模":"3000",
		"日取水量": "500",	
		"供水人数":"11000",
                "市": "上饶市",
                "县": "横峰县",
                "运行管理单位":"横峰县葛源水厂"
	},
	"success": true,
	"message": "查询成功"
}

