{
	"code": "200",
	"data": {
		"基本信息":"余干县江埠西城自来水厂巩固提升工程",
                "所在河段":"信江西大河",
                "水源类型": "地表水",
		
                "集水面积":"0.52信江东西大河分流比",
                "取水口高程":"",
		"无法取水口高程":"",
		"枯警水位":"7.85",
                "取水方式":"浮动式取水 ",   
                "设计供水规模": "10000",
		"日取水量": "10000",	
		"供水人数": "152973",
                "市": "上饶市",
                "县": "余干县",
                "运行管理单位":"余干县西城自来水有限公司"
                                    
	},
	"success": true,
	"message": "查询成功"
}
