{
	"code": "200",
	"data": {	         

                "基本信息":"余干县农村饮水安全白马水厂巩固提升工程",
                "所在河段":"信江东大河",
                "水源类型": "地表水",
		
                "集水面积":"0.48信江东西大河分流比",
                "取水口高程":"8.29",
		"无法取水口高程":"",
		"枯警水位":"8.00",
                "取水方式":"固定式（水泵）",  
                "设计供水规模":" 5940",
		"日取水量": "2800",	
		"供水人数":"37885",
                "市": "上饶市",
                "县": "余干县",   
                "运行管理单位":"白马桥乡高源自来水厂"
	},
	"success": true,
	"message": "查询成功"
}

