{
	"code": "200",
	"data": {
                "基本信息":"下镇镇集中供水工程",
                "所在河段":"毛宅水库",
                "水源类型": "地表水",
		
                "集水面积":"10.5",
                "取水口高程":"141.47",
		"无法取水口高程":"51.50",
                "枯警水位":"59.50",
                "取水方式":"水库管道自流",
                "设计供水规模":"4500",
		"日取水量": "400",	
		"供水人数":"44548",
                "市": "上饶市",
                "县": "玉山县",               
                "运行管理单位":"玉山县润鸿自来水有限公司（玉山县下镇镇自来水厂）"
	
},
	"success": true,
	"message": "查询成功"
}