{
	"code": "200",
	"data": {
                "基本信息":"德兴市新岗山镇九都供水工程",
                "所在河段":"体泉水",
                "水源类型": "地表水",
		
                "集水面积":"352",
                "取水口高程":"76.17",
		"无法取水口高程":"76.20",
                "枯警水位":"76.90",
                "取水方式":"固定式（水泵）", 
                "设计供水规模":"10000",
		"日取水量": "1500",	
		"供水人数":"7937",
                "市": "上饶市",
                "县": "德兴市",              
                "运行管理单位":"德兴市润泉供水有限公司"
},
	"success": true,
	"message": "查询成功"
}